%YAML 1.1
%TAG !u! tag:unity3d.com,2011:
--- !u!114 &11400000
MonoBehaviour:
  m_ObjectHideFlags: 0
  m_CorrespondingSourceObject: {fileID: 0}
  m_PrefabInstance: {fileID: 0}
  m_PrefabAsset: {fileID: 0}
  m_GameObject: {fileID: 0}
  m_Enabled: 1
  m_EditorHideFlags: 0
  m_Script: {fileID: 11500000, guid: 96806ac2f5174abeba2a09e74b2941ed, type: 3}
  m_Name: Road 12
  m_EditorClassIdentifier: 
  PathObject: {fileID: 4732739507619180556, guid: 4248b8e689f2f3740bc340c8c5e3b478, type: 3}
  MaxInstances: 2
  SpawnChance: 5
