%YAML 1.1
%TAG !u! tag:unity3d.com,2011:
--- !u!114 &11400000
MonoBehaviour:
  m_ObjectHideFlags: 0
  m_CorrespondingSourceObject: {fileID: 0}
  m_PrefabInstance: {fileID: 0}
  m_PrefabAsset: {fileID: 0}
  m_GameObject: {fileID: 0}
  m_Enabled: 1
  m_EditorHideFlags: 0
  m_Script: {fileID: 11500000, guid: e205b3d157b6490980155c109b0bc579, type: 3}
  m_Name: Vehicle Large
  m_EditorClassIdentifier: 
  _size: {x: 0, y: 0, z: 10}
  _rotationOffset: {x: 0, y: 180, z: 0}
  _deathOnTouch: 1
