%YAML 1.1
%TAG !u! tag:unity3d.com,2011:
--- !u!114 &11400000
MonoBehaviour:
  m_ObjectHideFlags: 0
  m_CorrespondingSourceObject: {fileID: 0}
  m_PrefabInstance: {fileID: 0}
  m_PrefabAsset: {fileID: 0}
  m_GameObject: {fileID: 0}
  m_Enabled: 1
  m_EditorHideFlags: 0
  m_Script: {fileID: 11500000, guid: 96806ac2f5174abeba2a09e74b2941ed, type: 3}
  m_Name: Car 03
  m_EditorClassIdentifier: 
  PathObject: {fileID: 1279146951254849717, guid: 46faa4e0324a6944094dd9a6bd7d0dbe, type: 3}
  MaxInstances: 5
  SpawnChance: 10
