%YAML 1.1
%TAG !u! tag:unity3d.com,2011:
--- !u!114 &11400000
MonoBehaviour:
  m_ObjectHideFlags: 0
  m_CorrespondingSourceObject: {fileID: 0}
  m_PrefabInstance: {fileID: 0}
  m_PrefabAsset: {fileID: 0}
  m_GameObject: {fileID: 0}
  m_Enabled: 1
  m_EditorHideFlags: 0
  m_Script: {fileID: 11500000, guid: 96806ac2f5174abeba2a09e74b2941ed, type: 3}
  m_Name: Coin
  m_EditorClassIdentifier: 
  PathObject: {fileID: 4653093265297207519, guid: ce83731acd57b38428b3cf44f3000c49, type: 3}
  MaxInstances: 15
  SpawnChance: 40
