%YAML 1.1
%TAG !u! tag:unity3d.com,2011:
--- !u!114 &11400000
MonoBehaviour:
  m_ObjectHideFlags: 0
  m_CorrespondingSourceObject: {fileID: 0}
  m_PrefabInstance: {fileID: 0}
  m_PrefabAsset: {fileID: 0}
  m_GameObject: {fileID: 0}
  m_Enabled: 1
  m_EditorHideFlags: 0
  m_Script: {fileID: 11500000, guid: 96806ac2f5174abeba2a09e74b2941ed, type: 3}
  m_Name: Hippie Van
  m_EditorClassIdentifier: 
  PathObject: {fileID: 1064989894135199060, guid: 7fdc1a41e76bddc44a9727fb51e47d84, type: 3}
  MaxInstances: 5
  SpawnChance: 10
